200071
200018
200059
200003
200062
200034
200014
200028
200017
200039
200044
200011
200045
200024
200053
200037
200065
200066
200054
200063
200001
200030
200072
200069
200021
200029
200067
200031
200057
200022
200023
200035
200043
200033
200060
200015
200010
200056
200055
200007
200013
200047
200027
200025
200026
200012
200070
200020
200002
200036
200009
200008
200064
200046
200041
200050
200061
200051
200040
200052
200032
200006
200019
200042
200058
200038
200016
200068
200048
200049
200004
200005
